…
    yelp_tbl_aisan_restaurants[yelp_tbl_aisan_restaurants == ""] = NA 

3.2 City
--------

Let´s take a look at the column city regarding misspellings (all other
columns were checked as well but only the column city had some issues).

    yelp_tbl_aisan_restaurants %>%
      dplyr::select(city) %>%
      dplyr::count(city) %>%
      arrange(-n)

    ## # A tibble: 337 x 2
    ##    city              n
    ##    <chr>         <int>
    ##  1 Toronto        1919
    ##  2 Las Vegas      1188
    ##  3 Montréal        685
    ##  4 Phoenix         458
    ##  5 Markham         416
    ##  6 Mississauga     367
    ##  7 Charlotte       352
    ##  8 Pittsburgh      290
    ##  9 Edinburgh       267
    ## 10 Richmond Hill   216
    ## # ... with 327 more rows
…
